…
joindata %>% filter(region == "Northeast") %>% group_by(division) %>% 
    summarize_if(is.numeric, mean, na.rm = T)

## # A tibble: 2 x 7
##   division       pop  SATV  SATM percent dollars   pay
##   <chr>        <dbl> <dbl> <dbl>   <dbl>   <dbl> <dbl>
## 1 Mid-Atlantic 12534  417.  469.    67.7    8.06  38.7
## 2 New England   2201  429.  470     66.2    6.40  34.3

joindata %>% mutate(dollars = ntile(pop, 100)) %>% arrange(desc(dollars)) %>% 
    select(state, dollars)

## # A tibble: 51 x 2
##    state          dollars
##    <chr>            <int>
##  1 California          99
##  2 New York            97
##  3 Texas               95
##  4 Florida             93
##  5 Pennsylvania        91
##  6 Illinois            89
##  7 Ohio                87
##  8 Michigan            85
##  9 New Jersey          83
## 10 North Carolina      81
## # … with 41 more rows
…
